Example Analysis – project-1
…
$ SOA            <int> 1431, 1423, 1470, 1311, 1374, 1460, 1270, 1445, 1560, 1…
$ E              <int> 71, 102, 95, 83, 100, 81, 80, 95, 66, 96, 102, 73, 75, …
$ DP             <int> 377, 378, 317, 321, 349, 395, 347, 338, 309, 313, 331, …
$ FP             <dbl> 0.988, 0.982, 0.983, 0.986, 0.983, 0.986, 0.986, 0.983,…
$ name           <chr> "Baltimore Orioles", "Boston Red Sox", "Chicago White S…
$ park           <chr> "Oriole Park at Camden Yards", "Fenway Park", "Guarante…
$ attendance     <int> 1936798, 2672130, 1669628, 1834068, 1612876, 3052347, 1…
$ BPF            <int> 96, 106, 103, 97, 102, 100, 101, 104, 101, 102, 92, 95,…
$ PPF            <int> 96, 106, 104, 97, 103, 98, 103, 104, 100, 101, 95, 94, …
$ teamIDBR       <chr> "BAL", "BOS", "CHW", "CLE", "DET", "HOU", "KCR", "LAA",…
$ teamIDlahman45 <chr> "BAL", "BOS", "CHA", "CLE", "DET", "HOU", "KCA", "ANA",…
$ teamIDretro    <chr> "BAL", "BOS", "CHA", "CLE", "DET", "HOU", "KCA", "ANA",…
$ BA             <dbl> 0.2545951, 0.2583603, 0.2377750, 0.2501360, 0.2358525, …

# A tibble: 30 × 49
# Groups:   lgID [2]
   yearID lgID  teamID franchID divID  Rank     G Ghome     W     L DivWin WCWin
    <int> <fct> <fct>  <fct>    <chr> <int> <int> <int> <int> <int> <chr>  <chr>
 1   2023 AL    BAL    BAL      E         1   162    81   101    61 Y      N    
 2   2023 AL    BOS    BOS      E         5   162    81    78    84 N      N    
 3   2023 AL    CHA    CHW      C         4   162    81    61   101 N      N    
 4   2023 AL    CLE    CLE      C         3   162    81    76    86 N      N    
 5   2023 AL    DET    DET      C         2   162    81    78    84 N      N    
 6   2023 AL    HOU    HOU      W         1   162    81    90    72 Y      N    
 7   2023 AL    KCA    KCR      C         5   162    81    56   106 N      N    
 8   2023 AL    LAA    ANA      W         4   162    81    73    89 N      N    
 9   2023 AL    MIN    MIN      C         1   162    81    87    75 Y      N    
10   2023 AL    NYA    NYY      E         4   162    81    82    80 N      N    
# ℹ 20 more rows
# ℹ 37 more variables: LgWin <chr>, WSWin <chr>, R <int>, AB <int>, H <int>,
#   X2B <int>, X3B <int>, HR <int>, BB <int>, SO <int>, SB <int>, CS <int>,
#   HBP <int>, SF <int>, RA <int>, ER <int>, ERA <dbl>, CG <int>, SHO <int>,
#   SV <int>, IPouts <int>, HA <int>, HRA <int>, BBA <int>, SOA <int>, E <int>,
#   DP <int>, FP <dbl>, name <chr>, park <chr>, attendance <int>, BPF <int>,
#   PPF <int>, teamIDBR <chr>, teamIDlahman45 <chr>, teamIDretro <chr>, …
…
