Project Paper
…
## define hyperparameters to tune
parameter_grid <- grid_regular(
  mtry(range = c(2, 7)),
  trees(range = c(50, 250)),
  min_n(range = c(1, 10))
)

## tune hyperparameters
tuned_results <- ML_workflow %>%
  tune_grid(resamples = cv_folds, grid = parameter_grid) 

tuned_results %>%
  collect_metrics()

# A tibble: 81 × 9
    mtry trees min_n .metric     .estimator  mean     n  std_err .config        
   <int> <int> <int> <chr>       <chr>      <dbl> <int>    <dbl> <chr>          
 1     2    50     1 accuracy    multiclass 0.652     3 0.00371  Preprocessor1_…
 2     2    50     1 brier_class multiclass 0.235     3 0.00183  Preprocessor1_…
 3     2    50     1 roc_auc     hand_till  0.776     3 0.00194  Preprocessor1_…
 4     4    50     1 accuracy    multiclass 0.684     3 0.00299  Preprocessor1_…
 5     4    50     1 brier_class multiclass 0.215     3 0.00203  Preprocessor1_…
 6     4    50     1 roc_auc     hand_till  0.797     3 0.00138  Preprocessor1_…
 7     7    50     1 accuracy    multiclass 0.677     3 0.00297  Preprocessor1_…
 8     7    50     1 brier_class multiclass 0.222     3 0.00222  Preprocessor1_…
 9     7    50     1 roc_auc     hand_till  0.790     3 0.000699 Preprocessor1_…
10     2   150     1 accuracy    multiclass 0.652     3 0.00522  Preprocessor1_…
# ℹ 71 more rows
…
